%YAML 1.1
%TAG !u! tag:unity3d.com,2011:
--- !u!114 &11400000
MonoBehaviour:
  m_ObjectHideFlags: 0
  m_CorrespondingSourceObject: {fileID: 0}
  m_PrefabInstance: {fileID: 0}
  m_PrefabAsset: {fileID: 0}
  m_GameObject: {fileID: 0}
  m_Enabled: 1
  m_EditorHideFlags: 0
  m_Script: {fileID: 11500000, guid: bbb281ee3bf0b054c82ac2347e9e782c, type: 3}
  m_Name: Default Local Group
  m_EditorClassIdentifier: 
  m_GroupName: Default Local Group
  m_Data:
    m_SerializedData: []
  m_GUID: d4ec5f0699e2b734a8a84497b66fe2ae
  m_SerializeEntries:
  - m_GUID: 79bc5ac8a3a2d6c44841b7ed7f781f9d
    m_Address: practice select button
    m_ReadOnly: 0
    m_SerializedLabels: []
  - m_GUID: 5553706d1587a874b81e76c3024b3f39
    m_Address: challenge select button
    m_ReadOnly: 0
    m_SerializedLabels: []
  - m_GUID: e38ec5d1c85c67642b32859e19792808
    m_Address: KETTLE_set001
    m_ReadOnly: 0
    m_SerializedLabels: []
  - m_GUID: f4eee7be8783df34396dade461f23949
    m_Address: LED_LIGHT_set001
    m_ReadOnly: 0
    m_SerializedLabels: []
  - m_GUID: 97b9daa97118026409e299abeba27f2d
    m_Address: AIRCONDITIONER_set001
    m_ReadOnly: 0
    m_SerializedLabels: []
  - m_GUID: a3bed50f60f73d14aa4631781f62a7a5
    m_Address: LAMP_set001
    m_ReadOnly: 0
    m_SerializedLabels: []
  - m_GUID: c4f540f69af02184aab8bad62ba1a00e
    m_Address: MICROWAVE_set001
    m_ReadOnly: 0
    m_SerializedLabels: []
  - m_GUID: aebe0d78d8285ac4fbeaaecad2677166
    m_Address: RICECOOKER_set001
    m_ReadOnly: 0
    m_SerializedLabels: []
  - m_GUID: eced1deee1baf394f89ff26036b66f19
    m_Address: FAN_set001
    m_ReadOnly: 0
    m_SerializedLabels: []
  - m_GUID: 82c1013d03f989d439adfb755ba372c8
    m_Address: REFRIDGERATOR_set001
    m_ReadOnly: 0
    m_SerializedLabels: []
  - m_GUID: 3b0aaabdf30863f44a35a4e94afe308e
    m_Address: LED_LIGHT_set002
    m_ReadOnly: 0
    m_SerializedLabels: []
  - m_GUID: 15097c30901cc6948a7064a988a7190e
    m_Address: LAMP_set002
    m_ReadOnly: 0
    m_SerializedLabels: []
  - m_GUID: 84e967776673323489bdbf93e33b4608
    m_Address: AIRCONDITIONER_set002
    m_ReadOnly: 0
    m_SerializedLabels: []
  - m_GUID: afade8ed3a1185e43a76563d6212f583
    m_Address: MICROWAVE_set002
    m_ReadOnly: 0
    m_SerializedLabels: []
  - m_GUID: 3c4d0c020c6518f49894dde5c29386a8
    m_Address: KETTLE_set002
    m_ReadOnly: 0
    m_SerializedLabels: []
  - m_GUID: 16fc2cf7d4aef57419835b3b9ee3f1ae
    m_Address: RICECOOKER_set002
    m_ReadOnly: 0
    m_SerializedLabels: []
  - m_GUID: cec204cc53f4c7f46bccd9e140f50c6e
    m_Address: FAN_set002
    m_ReadOnly: 0
    m_SerializedLabels: []
  - m_GUID: c953348e0e0cfe34395509fde4260284
    m_Address: REFRIDGERATOR_set002
    m_ReadOnly: 0
    m_SerializedLabels: []
  m_ReadOnly: 0
  m_Settings: {fileID: 11400000, guid: 41d84a1e5f907b947a72bc7f31566aa6, type: 2}
  m_SchemaSet:
    m_Schemas:
    - {fileID: 11400000, guid: 492b65a6189e39845b70b74d4dd80f3f, type: 2}
    - {fileID: 11400000, guid: fe289584971d23d4d81cda44518a54d8, type: 2}
