%YAML 1.1
%TAG !u! tag:unity3d.com,2011:
--- !u!1 &480385284741590141
GameObject:
  m_ObjectHideFlags: 0
  m_CorrespondingSourceObject: {fileID: 0}
  m_PrefabInstance: {fileID: 0}
  m_PrefabAsset: {fileID: 0}
  serializedVersion: 6
  m_Component:
  - component: {fileID: 4191280012004786478}
  m_Layer: 0
  m_Name: GameObject
  m_TagString: Untagged
  m_Icon: {fileID: 0}
  m_NavMeshLayer: 0
  m_StaticEditorFlags: 0
  m_IsActive: 1
--- !u!4 &4191280012004786478
Transform:
  m_ObjectHideFlags: 0
  m_CorrespondingSourceObject: {fileID: 0}
  m_PrefabInstance: {fileID: 0}
  m_PrefabAsset: {fileID: 0}
  m_GameObject: {fileID: 480385284741590141}
  m_LocalRotation: {x: 0, y: 0, z: 0, w: 1}
  m_LocalPosition: {x: 0, y: 0, z: 0}
  m_LocalScale: {x: 1, y: 1, z: 1}
  m_Children: []
  m_Father: {fileID: 3846068917130859879}
  m_RootOrder: 0
  m_LocalEulerAnglesHint: {x: 0, y: 0, z: 0}
--- !u!1 &1363862609358839930
GameObject:
  m_ObjectHideFlags: 0
  m_CorrespondingSourceObject: {fileID: 0}
  m_PrefabInstance: {fileID: 0}
  m_PrefabAsset: {fileID: 0}
  serializedVersion: 6
  m_Component:
  - component: {fileID: 4110971592478842207}
  - component: {fileID: 219583027684013834}
  m_Layer: 0
  m_Name: CenterOfRoom
  m_TagString: Untagged
  m_Icon: {fileID: 0}
  m_NavMeshLayer: 0
  m_StaticEditorFlags: 0
  m_IsActive: 1
--- !u!4 &4110971592478842207
Transform:
  m_ObjectHideFlags: 0
  m_CorrespondingSourceObject: {fileID: 0}
  m_PrefabInstance: {fileID: 0}
  m_PrefabAsset: {fileID: 0}
  m_GameObject: {fileID: 1363862609358839930}
  m_LocalRotation: {x: 0, y: 0, z: 0, w: 1}
  m_LocalPosition: {x: 0, y: 0, z: 0}
  m_LocalScale: {x: 1, y: 1, z: 1}
  m_Children: []
  m_Father: {fileID: 3463751047732768080}
  m_RootOrder: 0
  m_LocalEulerAnglesHint: {x: 0, y: 0, z: 0}
--- !u!114 &219583027684013834
MonoBehaviour:
  m_ObjectHideFlags: 0
  m_CorrespondingSourceObject: {fileID: 0}
  m_PrefabInstance: {fileID: 0}
  m_PrefabAsset: {fileID: 0}
  m_GameObject: {fileID: 1363862609358839930}
  m_Enabled: 1
  m_EditorHideFlags: 0
  m_Script: {fileID: 11500000, guid: 60152de8dadfb0d48bc56171f46a6d9e, type: 3}
  m_Name: 
  m_EditorClassIdentifier: 
  changeX: 1
  x: 4454.075
  changeY: 1
  y: 0.7350156
  changeFOV: 1
  fov: 50
  center: {fileID: 8331842349421125986}
--- !u!1 &1863653886883993322
GameObject:
  m_ObjectHideFlags: 0
  m_CorrespondingSourceObject: {fileID: 0}
  m_PrefabInstance: {fileID: 0}
  m_PrefabAsset: {fileID: 0}
  serializedVersion: 6
  m_Component:
  - component: {fileID: 3802388005146978321}
  - component: {fileID: 6443434934544414830}
  m_Layer: 0
  m_Name: FanCenter
  m_TagString: Untagged
  m_Icon: {fileID: 0}
  m_NavMeshLayer: 0
  m_StaticEditorFlags: 0
  m_IsActive: 1
--- !u!4 &3802388005146978321
Transform:
  m_ObjectHideFlags: 0
  m_CorrespondingSourceObject: {fileID: 0}
  m_PrefabInstance: {fileID: 0}
  m_PrefabAsset: {fileID: 0}
  m_GameObject: {fileID: 1863653886883993322}
  m_LocalRotation: {x: -0, y: -0, z: -0, w: 1}
  m_LocalPosition: {x: 0, y: 0, z: 0}
  m_LocalScale: {x: 1, y: 1, z: 1}
  m_Children: []
  m_Father: {fileID: 3463751047732768080}
  m_RootOrder: 1
  m_LocalEulerAnglesHint: {x: 0, y: 0, z: 0}
--- !u!114 &6443434934544414830
MonoBehaviour:
  m_ObjectHideFlags: 0
  m_CorrespondingSourceObject: {fileID: 0}
  m_PrefabInstance: {fileID: 0}
  m_PrefabAsset: {fileID: 0}
  m_GameObject: {fileID: 1863653886883993322}
  m_Enabled: 1
  m_EditorHideFlags: 0
  m_Script: {fileID: 11500000, guid: 60152de8dadfb0d48bc56171f46a6d9e, type: 3}
  m_Name: 
  m_EditorClassIdentifier: 
  changeX: 0
  x: 4454.075
  changeY: 0
  y: 0.7350156
  changeFOV: 0
  fov: 50
  center: {fileID: 3463177908896121623}
--- !u!1 &2193910612556807852
GameObject:
  m_ObjectHideFlags: 0
  m_CorrespondingSourceObject: {fileID: 0}
  m_PrefabInstance: {fileID: 0}
  m_PrefabAsset: {fileID: 0}
  serializedVersion: 6
  m_Component:
  - component: {fileID: 8331842349421125986}
  m_Layer: 0
  m_Name: CENTERMARKPOINT
  m_TagString: Untagged
  m_Icon: {fileID: 0}
  m_NavMeshLayer: 0
  m_StaticEditorFlags: 0
  m_IsActive: 1
--- !u!4 &8331842349421125986
Transform:
  m_ObjectHideFlags: 0
  m_CorrespondingSourceObject: {fileID: 0}
  m_PrefabInstance: {fileID: 0}
  m_PrefabAsset: {fileID: 0}
  m_GameObject: {fileID: 2193910612556807852}
  m_LocalRotation: {x: -0, y: -0, z: -0, w: 1}
  m_LocalPosition: {x: -0.002, y: 0.163, z: -0.001}
  m_LocalScale: {x: 0.01, y: 0.01, z: 0.01}
  m_Children: []
  m_Father: {fileID: 679363783003489711}
  m_RootOrder: 0
  m_LocalEulerAnglesHint: {x: 0, y: 0, z: 0}
--- !u!1 &2651370676774436808
GameObject:
  m_ObjectHideFlags: 0
  m_CorrespondingSourceObject: {fileID: 0}
  m_PrefabInstance: {fileID: 0}
  m_PrefabAsset: {fileID: 0}
  serializedVersion: 6
  m_Component:
  - component: {fileID: 4908460989321917601}
  m_Layer: 0
  m_Name: TableGroup
  m_TagString: Untagged
  m_Icon: {fileID: 0}
  m_NavMeshLayer: 0
  m_StaticEditorFlags: 0
  m_IsActive: 1
--- !u!4 &4908460989321917601
Transform:
  m_ObjectHideFlags: 0
  m_CorrespondingSourceObject: {fileID: 0}
  m_PrefabInstance: {fileID: 0}
  m_PrefabAsset: {fileID: 0}
  m_GameObject: {fileID: 2651370676774436808}
  m_LocalRotation: {x: 0, y: 0.7071068, z: 0, w: 0.7071068}
  m_LocalPosition: {x: 0.1069, y: 0.01, z: 0.0583}
  m_LocalScale: {x: 0.05, y: 0.08, z: 0.08}
  m_Children:
  - {fileID: 4019297406302104089}
  - {fileID: 3846068917130859879}
  m_Father: {fileID: 354348962065338359}
  m_RootOrder: 0
  m_LocalEulerAnglesHint: {x: 0, y: 90, z: 0}
--- !u!1 &3068695168020172722
GameObject:
  m_ObjectHideFlags: 0
  m_CorrespondingSourceObject: {fileID: 0}
  m_PrefabInstance: {fileID: 0}
  m_PrefabAsset: {fileID: 0}
  serializedVersion: 6
  m_Component:
  - component: {fileID: 3463751047732768080}
  m_Layer: 0
  m_Name: VIEW
  m_TagString: Untagged
  m_Icon: {fileID: 0}
  m_NavMeshLayer: 0
  m_StaticEditorFlags: 0
  m_IsActive: 1
--- !u!4 &3463751047732768080
Transform:
  m_ObjectHideFlags: 0
  m_CorrespondingSourceObject: {fileID: 0}
  m_PrefabInstance: {fileID: 0}
  m_PrefabAsset: {fileID: 0}
  m_GameObject: {fileID: 3068695168020172722}
  m_LocalRotation: {x: -0, y: -0, z: -0, w: 1}
  m_LocalPosition: {x: 0, y: 0, z: 0}
  m_LocalScale: {x: 1, y: 1, z: 1}
  m_Children:
  - {fileID: 4110971592478842207}
  - {fileID: 3802388005146978321}
  - {fileID: 5327169711713287182}
  - {fileID: 4406726232240652726}
  - {fileID: 679363783003489711}
  m_Father: {fileID: 4860318770443370541}
  m_RootOrder: 1
  m_LocalEulerAnglesHint: {x: 0, y: 0, z: 0}
--- !u!1 &4474954143104635823
GameObject:
  m_ObjectHideFlags: 0
  m_CorrespondingSourceObject: {fileID: 0}
  m_PrefabInstance: {fileID: 0}
  m_PrefabAsset: {fileID: 0}
  serializedVersion: 6
  m_Component:
  - component: {fileID: 2053283258225650798}
  - component: {fileID: 8243467834474409177}
  - component: {fileID: 4535779358393528423}
  - component: {fileID: 4272593899906362455}
  m_Layer: 0
  m_Name: Stair
  m_TagString: Untagged
  m_Icon: {fileID: 0}
  m_NavMeshLayer: 0
  m_StaticEditorFlags: 0
  m_IsActive: 1
--- !u!4 &2053283258225650798
Transform:
  m_ObjectHideFlags: 0
  m_CorrespondingSourceObject: {fileID: 0}
  m_PrefabInstance: {fileID: 0}
  m_PrefabAsset: {fileID: 0}
  m_GameObject: {fileID: 4474954143104635823}
  m_LocalRotation: {x: -0, y: -0, z: -0, w: 1}
  m_LocalPosition: {x: -0.0755, y: 0.1609, z: -0.1221}
  m_LocalScale: {x: 0.1175, y: 0.00375, z: 0.032512505}
  m_Children: []
  m_Father: {fileID: 354348962065338359}
  m_RootOrder: 1
  m_LocalEulerAnglesHint: {x: 0, y: 0, z: 0}
--- !u!33 &8243467834474409177
MeshFilter:
  m_ObjectHideFlags: 0
  m_CorrespondingSourceObject: {fileID: 0}
  m_PrefabInstance: {fileID: 0}
  m_PrefabAsset: {fileID: 0}
  m_GameObject: {fileID: 4474954143104635823}
  m_Mesh: {fileID: 10202, guid: 0000000000000000e000000000000000, type: 0}
--- !u!23 &4535779358393528423
MeshRenderer:
  m_ObjectHideFlags: 0
  m_CorrespondingSourceObject: {fileID: 0}
  m_PrefabInstance: {fileID: 0}
  m_PrefabAsset: {fileID: 0}
  m_GameObject: {fileID: 4474954143104635823}
  m_Enabled: 1
  m_CastShadows: 1
  m_ReceiveShadows: 1
  m_DynamicOccludee: 1
  m_MotionVectors: 1
  m_LightProbeUsage: 1
  m_ReflectionProbeUsage: 1
  m_RayTracingMode: 2
  m_RayTraceProcedural: 0
  m_RenderingLayerMask: 1
  m_RendererPriority: 0
  m_Materials:
  - {fileID: 2100000, guid: a7862d5615928c34e868320de65c2777, type: 2}
  m_StaticBatchInfo:
    firstSubMesh: 0
    subMeshCount: 0
  m_StaticBatchRoot: {fileID: 0}
  m_ProbeAnchor: {fileID: 0}
  m_LightProbeVolumeOverride: {fileID: 0}
  m_ScaleInLightmap: 1
  m_ReceiveGI: 1
  m_PreserveUVs: 0
  m_IgnoreNormalsForChartDetection: 0
  m_ImportantGI: 0
  m_StitchLightmapSeams: 1
  m_SelectedEditorRenderState: 3
  m_MinimumChartSize: 4
  m_AutoUVMaxDistance: 0.5
  m_AutoUVMaxAngle: 89
  m_LightmapParameters: {fileID: 0}
  m_SortingLayerID: 0
  m_SortingLayer: 0
  m_SortingOrder: 0
  m_AdditionalVertexStreams: {fileID: 0}
--- !u!65 &4272593899906362455
BoxCollider:
  m_ObjectHideFlags: 0
  m_CorrespondingSourceObject: {fileID: 0}
  m_PrefabInstance: {fileID: 0}
  m_PrefabAsset: {fileID: 0}
  m_GameObject: {fileID: 4474954143104635823}
  m_Material: {fileID: 0}
  m_IsTrigger: 0
  m_Enabled: 1
  serializedVersion: 2
  m_Size: {x: 1, y: 1, z: 1}
  m_Center: {x: 0, y: 0, z: 0}
--- !u!1 &4668277094927266436
GameObject:
  m_ObjectHideFlags: 0
  m_CorrespondingSourceObject: {fileID: 0}
  m_PrefabInstance: {fileID: 0}
  m_PrefabAsset: {fileID: 0}
  serializedVersion: 6
  m_Component:
  - component: {fileID: 679363783003489711}
  m_Layer: 0
  m_Name: VIEWMARKPOINT
  m_TagString: Untagged
  m_Icon: {fileID: 0}
  m_NavMeshLayer: 0
  m_StaticEditorFlags: 0
  m_IsActive: 1
--- !u!4 &679363783003489711
Transform:
  m_ObjectHideFlags: 0
  m_CorrespondingSourceObject: {fileID: 0}
  m_PrefabInstance: {fileID: 0}
  m_PrefabAsset: {fileID: 0}
  m_GameObject: {fileID: 4668277094927266436}
  m_LocalRotation: {x: -0, y: -0, z: -0, w: 1}
  m_LocalPosition: {x: 0, y: 0.15206385, z: 0}
  m_LocalScale: {x: 1, y: 1, z: 1}
  m_Children:
  - {fileID: 8331842349421125986}
  m_Father: {fileID: 3463751047732768080}
  m_RootOrder: 4
  m_LocalEulerAnglesHint: {x: 0, y: 0, z: 0}
--- !u!1 &5810590002678305452
GameObject:
  m_ObjectHideFlags: 0
  m_CorrespondingSourceObject: {fileID: 0}
  m_PrefabInstance: {fileID: 0}
  m_PrefabAsset: {fileID: 0}
  serializedVersion: 6
  m_Component:
  - component: {fileID: 354348962065338359}
  m_Layer: 0
  m_Name: FurnitureGroup
  m_TagString: Untagged
  m_Icon: {fileID: 0}
  m_NavMeshLayer: 0
  m_StaticEditorFlags: 0
  m_IsActive: 1
--- !u!4 &354348962065338359
Transform:
  m_ObjectHideFlags: 0
  m_CorrespondingSourceObject: {fileID: 0}
  m_PrefabInstance: {fileID: 0}
  m_PrefabAsset: {fileID: 0}
  m_GameObject: {fileID: 5810590002678305452}
  m_LocalRotation: {x: 0, y: 0, z: 0, w: 1}
  m_LocalPosition: {x: 0, y: 0, z: 0}
  m_LocalScale: {x: 1, y: 1, z: 1}
  m_Children:
  - {fileID: 4908460989321917601}
  - {fileID: 2053283258225650798}
  - {fileID: 4273107042741709533}
  m_Father: {fileID: 5409454246588440286}
  m_RootOrder: 2
  m_LocalEulerAnglesHint: {x: 0, y: 0, z: 0}
--- !u!1 &5902115797757404290
GameObject:
  m_ObjectHideFlags: 0
  m_CorrespondingSourceObject: {fileID: 0}
  m_PrefabInstance: {fileID: 0}
  m_PrefabAsset: {fileID: 0}
  serializedVersion: 6
  m_Component:
  - component: {fileID: 5409454246588440286}
  m_Layer: 0
  m_Name: Environment
  m_TagString: Untagged
  m_Icon: {fileID: 0}
  m_NavMeshLayer: 0
  m_StaticEditorFlags: 0
  m_IsActive: 1
--- !u!4 &5409454246588440286
Transform:
  m_ObjectHideFlags: 0
  m_CorrespondingSourceObject: {fileID: 0}
  m_PrefabInstance: {fileID: 0}
  m_PrefabAsset: {fileID: 0}
  m_GameObject: {fileID: 5902115797757404290}
  m_LocalRotation: {x: 0, y: 0, z: 0, w: 1}
  m_LocalPosition: {x: 0, y: 0, z: 0}
  m_LocalScale: {x: 4, y: 4, z: 4}
  m_Children:
  - {fileID: 4012930846237600147}
  - {fileID: 4444998128068021080}
  - {fileID: 354348962065338359}
  m_Father: {fileID: 8405937780857733088}
  m_RootOrder: 0
  m_LocalEulerAnglesHint: {x: 0, y: 0, z: 0}
--- !u!1 &6842427321181032358
GameObject:
  m_ObjectHideFlags: 0
  m_CorrespondingSourceObject: {fileID: 0}
  m_PrefabInstance: {fileID: 0}
  m_PrefabAsset: {fileID: 0}
  serializedVersion: 6
  m_Component:
  - component: {fileID: 4406726232240652726}
  - component: {fileID: 8709971812283017458}
  m_Layer: 0
  m_Name: FanSideVIew
  m_TagString: Untagged
  m_Icon: {fileID: 0}
  m_NavMeshLayer: 0
  m_StaticEditorFlags: 0
  m_IsActive: 1
--- !u!4 &4406726232240652726
Transform:
  m_ObjectHideFlags: 0
  m_CorrespondingSourceObject: {fileID: 0}
  m_PrefabInstance: {fileID: 0}
  m_PrefabAsset: {fileID: 0}
  m_GameObject: {fileID: 6842427321181032358}
  m_LocalRotation: {x: -0, y: -0, z: -0, w: 1}
  m_LocalPosition: {x: 0, y: 0, z: 0}
  m_LocalScale: {x: 1, y: 1, z: 1}
  m_Children: []
  m_Father: {fileID: 3463751047732768080}
  m_RootOrder: 3
  m_LocalEulerAnglesHint: {x: 0, y: 0, z: 0}
--- !u!114 &8709971812283017458
MonoBehaviour:
  m_ObjectHideFlags: 0
  m_CorrespondingSourceObject: {fileID: 0}
  m_PrefabInstance: {fileID: 0}
  m_PrefabAsset: {fileID: 0}
  m_GameObject: {fileID: 6842427321181032358}
  m_Enabled: 1
  m_EditorHideFlags: 0
  m_Script: {fileID: 11500000, guid: 60152de8dadfb0d48bc56171f46a6d9e, type: 3}
  m_Name: 
  m_EditorClassIdentifier: 
  changeX: 1
  x: 4456.2817
  changeY: 1
  y: 0.73291147
  changeFOV: 1
  fov: 6
  center: {fileID: 6367524396304406043}
--- !u!1 &7174811201900584251
GameObject:
  m_ObjectHideFlags: 0
  m_CorrespondingSourceObject: {fileID: 0}
  m_PrefabInstance: {fileID: 0}
  m_PrefabAsset: {fileID: 0}
  serializedVersion: 6
  m_Component:
  - component: {fileID: 4860318770443370541}
  - component: {fileID: 186426681191441595}
  - component: {fileID: 5455350937624072371}
  m_Layer: 0
  m_Name: FAN_ROOM_1
  m_TagString: Untagged
  m_Icon: {fileID: 0}
  m_NavMeshLayer: 0
  m_StaticEditorFlags: 0
  m_IsActive: 1
--- !u!4 &4860318770443370541
Transform:
  m_ObjectHideFlags: 0
  m_CorrespondingSourceObject: {fileID: 0}
  m_PrefabInstance: {fileID: 0}
  m_PrefabAsset: {fileID: 0}
  m_GameObject: {fileID: 7174811201900584251}
  m_LocalRotation: {x: 0, y: 0, z: 0, w: 1}
  m_LocalPosition: {x: 0, y: 0, z: 0}
  m_LocalScale: {x: 1, y: 1, z: 1}
  m_Children:
  - {fileID: 8405937780857733088}
  - {fileID: 3463751047732768080}
  - {fileID: 3463177908896121623}
  - {fileID: 5486641095520498501}
  - {fileID: 9189146713996135759}
  - {fileID: 5564694001226305123}
  - {fileID: 2296204570662403607}
  m_Father: {fileID: 0}
  m_RootOrder: 0
  m_LocalEulerAnglesHint: {x: 0, y: 0, z: 0}
--- !u!114 &186426681191441595
MonoBehaviour:
  m_ObjectHideFlags: 0
  m_CorrespondingSourceObject: {fileID: 0}
  m_PrefabInstance: {fileID: 0}
  m_PrefabAsset: {fileID: 0}
  m_GameObject: {fileID: 7174811201900584251}
  m_Enabled: 1
  m_EditorHideFlags: 0
  m_Script: {fileID: 11500000, guid: 582d221b8eb2c3c488f5ec09bc7d860d, type: 3}
  m_Name: 
  m_EditorClassIdentifier: 
  tools:
  - HAND
  - CLOTH
  - WATER
--- !u!114 &5455350937624072371
MonoBehaviour:
  m_ObjectHideFlags: 0
  m_CorrespondingSourceObject: {fileID: 0}
  m_PrefabInstance: {fileID: 0}
  m_PrefabAsset: {fileID: 0}
  m_GameObject: {fileID: 7174811201900584251}
  m_Enabled: 1
  m_EditorHideFlags: 0
  m_Script: {fileID: 11500000, guid: 3a91ffecfb876f44787bc21f47289faf, type: 3}
  m_Name: 
  m_EditorClassIdentifier: 
  view: {fileID: 219583027684013834}
--- !u!1 &7291070761619118512
GameObject:
  m_ObjectHideFlags: 0
  m_CorrespondingSourceObject: {fileID: 0}
  m_PrefabInstance: {fileID: 0}
  m_PrefabAsset: {fileID: 0}
  serializedVersion: 6
  m_Component:
  - component: {fileID: 4273107042741709533}
  - component: {fileID: 3807150389633171176}
  - component: {fileID: 7353811762486145739}
  - component: {fileID: 7018701405245303047}
  m_Layer: 0
  m_Name: Stair (1)
  m_TagString: Untagged
  m_Icon: {fileID: 0}
  m_NavMeshLayer: 0
  m_StaticEditorFlags: 0
  m_IsActive: 1
--- !u!4 &4273107042741709533
Transform:
  m_ObjectHideFlags: 0
  m_CorrespondingSourceObject: {fileID: 0}
  m_PrefabInstance: {fileID: 0}
  m_PrefabAsset: {fileID: 0}
  m_GameObject: {fileID: 7291070761619118512}
  m_LocalRotation: {x: -0, y: -0, z: -0, w: 1}
  m_LocalPosition: {x: -0.0632, y: 0.1859, z: -0.1221}
  m_LocalScale: {x: 0.088125, y: 0.00375, z: 0.032512505}
  m_Children: []
  m_Father: {fileID: 354348962065338359}
  m_RootOrder: 2
  m_LocalEulerAnglesHint: {x: 0, y: 0, z: 0}
--- !u!33 &3807150389633171176
MeshFilter:
  m_ObjectHideFlags: 0
  m_CorrespondingSourceObject: {fileID: 0}
  m_PrefabInstance: {fileID: 0}
  m_PrefabAsset: {fileID: 0}
  m_GameObject: {fileID: 7291070761619118512}
  m_Mesh: {fileID: 10202, guid: 0000000000000000e000000000000000, type: 0}
--- !u!23 &7353811762486145739
MeshRenderer:
  m_ObjectHideFlags: 0
  m_CorrespondingSourceObject: {fileID: 0}
  m_PrefabInstance: {fileID: 0}
  m_PrefabAsset: {fileID: 0}
  m_GameObject: {fileID: 7291070761619118512}
  m_Enabled: 1
  m_CastShadows: 1
  m_ReceiveShadows: 1
  m_DynamicOccludee: 1
  m_MotionVectors: 1
  m_LightProbeUsage: 1
  m_ReflectionProbeUsage: 1
  m_RayTracingMode: 2
  m_RayTraceProcedural: 0
  m_RenderingLayerMask: 1
  m_RendererPriority: 0
  m_Materials:
  - {fileID: 2100000, guid: a7862d5615928c34e868320de65c2777, type: 2}
  m_StaticBatchInfo:
    firstSubMesh: 0
    subMeshCount: 0
  m_StaticBatchRoot: {fileID: 0}
  m_ProbeAnchor: {fileID: 0}
  m_LightProbeVolumeOverride: {fileID: 0}
  m_ScaleInLightmap: 1
  m_ReceiveGI: 1
  m_PreserveUVs: 0
  m_IgnoreNormalsForChartDetection: 0
  m_ImportantGI: 0
  m_StitchLightmapSeams: 1
  m_SelectedEditorRenderState: 3
  m_MinimumChartSize: 4
  m_AutoUVMaxDistance: 0.5
  m_AutoUVMaxAngle: 89
  m_LightmapParameters: {fileID: 0}
  m_SortingLayerID: 0
  m_SortingLayer: 0
  m_SortingOrder: 0
  m_AdditionalVertexStreams: {fileID: 0}
--- !u!65 &7018701405245303047
BoxCollider:
  m_ObjectHideFlags: 0
  m_CorrespondingSourceObject: {fileID: 0}
  m_PrefabInstance: {fileID: 0}
  m_PrefabAsset: {fileID: 0}
  m_GameObject: {fileID: 7291070761619118512}
  m_Material: {fileID: 0}
  m_IsTrigger: 0
  m_Enabled: 1
  serializedVersion: 2
  m_Size: {x: 1, y: 1, z: 1}
  m_Center: {x: 0, y: 0, z: 0}
--- !u!1 &7338592733074157457
GameObject:
  m_ObjectHideFlags: 0
  m_CorrespondingSourceObject: {fileID: 0}
  m_PrefabInstance: {fileID: 0}
  m_PrefabAsset: {fileID: 0}
  serializedVersion: 6
  m_Component:
  - component: {fileID: 5327169711713287182}
  - component: {fileID: 1060364498462774468}
  m_Layer: 0
  m_Name: CLIPLOCK
  m_TagString: Untagged
  m_Icon: {fileID: 0}
  m_NavMeshLayer: 0
  m_StaticEditorFlags: 0
  m_IsActive: 1
--- !u!4 &5327169711713287182
Transform:
  m_ObjectHideFlags: 0
  m_CorrespondingSourceObject: {fileID: 0}
  m_PrefabInstance: {fileID: 0}
  m_PrefabAsset: {fileID: 0}
  m_GameObject: {fileID: 7338592733074157457}
  m_LocalRotation: {x: -0, y: -0, z: -0, w: 1}
  m_LocalPosition: {x: 0, y: 0, z: 0}
  m_LocalScale: {x: 1, y: 1, z: 1}
  m_Children: []
  m_Father: {fileID: 3463751047732768080}
  m_RootOrder: 2
  m_LocalEulerAnglesHint: {x: 0, y: 0, z: 0}
--- !u!114 &1060364498462774468
MonoBehaviour:
  m_ObjectHideFlags: 0
  m_CorrespondingSourceObject: {fileID: 0}
  m_PrefabInstance: {fileID: 0}
  m_PrefabAsset: {fileID: 0}
  m_GameObject: {fileID: 7338592733074157457}
  m_Enabled: 1
  m_EditorHideFlags: 0
  m_Script: {fileID: 11500000, guid: 60152de8dadfb0d48bc56171f46a6d9e, type: 3}
  m_Name: 
  m_EditorClassIdentifier: 
  changeX: 0
  x: 4467.8413
  changeY: 0
  y: 0.745797
  changeFOV: 0
  fov: 9.735901
  center: {fileID: 7982604531313275186}
--- !u!1 &8927729673071374600
GameObject:
  m_ObjectHideFlags: 0
  m_CorrespondingSourceObject: {fileID: 0}
  m_PrefabInstance: {fileID: 0}
  m_PrefabAsset: {fileID: 0}
  serializedVersion: 6
  m_Component:
  - component: {fileID: 8405937780857733088}
  m_Layer: 0
  m_Name: MODELS
  m_TagString: Untagged
  m_Icon: {fileID: 0}
  m_NavMeshLayer: 0
  m_StaticEditorFlags: 0
  m_IsActive: 1
--- !u!4 &8405937780857733088
Transform:
  m_ObjectHideFlags: 0
  m_CorrespondingSourceObject: {fileID: 0}
  m_PrefabInstance: {fileID: 0}
  m_PrefabAsset: {fileID: 0}
  m_GameObject: {fileID: 8927729673071374600}
  m_LocalRotation: {x: -0, y: -0, z: -0, w: 1}
  m_LocalPosition: {x: 0, y: 0, z: 0}
  m_LocalScale: {x: 1, y: 1, z: 1}
  m_Children:
  - {fileID: 5409454246588440286}
  m_Father: {fileID: 4860318770443370541}
  m_RootOrder: 0
  m_LocalEulerAnglesHint: {x: 0, y: 0, z: 0}
--- !u!1001 &784052944161439844
PrefabInstance:
  m_ObjectHideFlags: 0
  serializedVersion: 2
  m_Modification:
    m_TransformParent: {fileID: 4860318770443370541}
    m_Modifications:
    - target: {fileID: 8459989633451692299, guid: fcaa939816204e64c975b0e1c9b0c87e, type: 3}
      propertyPath: m_Name
      value: coffee-cup
      objectReference: {fileID: 0}
    - target: {fileID: 8459989633452182827, guid: fcaa939816204e64c975b0e1c9b0c87e, type: 3}
      propertyPath: m_RootOrder
      value: 4
      objectReference: {fileID: 0}
    - target: {fileID: 8459989633452182827, guid: fcaa939816204e64c975b0e1c9b0c87e, type: 3}
      propertyPath: m_LocalScale.x
      value: 0.4
      objectReference: {fileID: 0}
    - target: {fileID: 8459989633452182827, guid: fcaa939816204e64c975b0e1c9b0c87e, type: 3}
      propertyPath: m_LocalScale.y
      value: 0.4
      objectReference: {fileID: 0}
    - target: {fileID: 8459989633452182827, guid: fcaa939816204e64c975b0e1c9b0c87e, type: 3}
      propertyPath: m_LocalScale.z
      value: 0.4
      objectReference: {fileID: 0}
    - target: {fileID: 8459989633452182827, guid: fcaa939816204e64c975b0e1c9b0c87e, type: 3}
      propertyPath: m_LocalPosition.x
      value: 0.482
      objectReference: {fileID: 0}
    - target: {fileID: 8459989633452182827, guid: fcaa939816204e64c975b0e1c9b0c87e, type: 3}
      propertyPath: m_LocalPosition.y
      value: 0.296
      objectReference: {fileID: 0}
    - target: {fileID: 8459989633452182827, guid: fcaa939816204e64c975b0e1c9b0c87e, type: 3}
      propertyPath: m_LocalPosition.z
      value: 0.3898
      objectReference: {fileID: 0}
    - target: {fileID: 8459989633452182827, guid: fcaa939816204e64c975b0e1c9b0c87e, type: 3}
      propertyPath: m_LocalRotation.w
      value: 0.86696345
      objectReference: {fileID: 0}
    - target: {fileID: 8459989633452182827, guid: fcaa939816204e64c975b0e1c9b0c87e, type: 3}
      propertyPath: m_LocalRotation.x
      value: -0
      objectReference: {fileID: 0}
    - target: {fileID: 8459989633452182827, guid: fcaa939816204e64c975b0e1c9b0c87e, type: 3}
      propertyPath: m_LocalRotation.y
      value: 0.4983717
      objectReference: {fileID: 0}
    - target: {fileID: 8459989633452182827, guid: fcaa939816204e64c975b0e1c9b0c87e, type: 3}
      propertyPath: m_LocalRotation.z
      value: -0
      objectReference: {fileID: 0}
    - target: {fileID: 8459989633452182827, guid: fcaa939816204e64c975b0e1c9b0c87e, type: 3}
      propertyPath: m_LocalEulerAnglesHint.x
      value: 0
      objectReference: {fileID: 0}
    - target: {fileID: 8459989633452182827, guid: fcaa939816204e64c975b0e1c9b0c87e, type: 3}
      propertyPath: m_LocalEulerAnglesHint.y
      value: 59.785
      objectReference: {fileID: 0}
    - target: {fileID: 8459989633452182827, guid: fcaa939816204e64c975b0e1c9b0c87e, type: 3}
      propertyPath: m_LocalEulerAnglesHint.z
      value: 0
      objectReference: {fileID: 0}
    m_RemovedComponents: []
  m_SourcePrefab: {fileID: 100100000, guid: fcaa939816204e64c975b0e1c9b0c87e, type: 3}
--- !u!4 &9189146713996135759 stripped
Transform:
  m_CorrespondingSourceObject: {fileID: 8459989633452182827, guid: fcaa939816204e64c975b0e1c9b0c87e, type: 3}
  m_PrefabInstance: {fileID: 784052944161439844}
  m_PrefabAsset: {fileID: 0}
--- !u!1001 &2291459213766696553
PrefabInstance:
  m_ObjectHideFlags: 0
  serializedVersion: 2
  m_Modification:
    m_TransformParent: {fileID: 4860318770443370541}
    m_Modifications:
    - target: {fileID: 1886126668315858, guid: 34aa3fc438758473c9e3d9ad570cf23f, type: 3}
      propertyPath: m_Name
      value: table-dining (1)
      objectReference: {fileID: 0}
    - target: {fileID: 4828949845237886, guid: 34aa3fc438758473c9e3d9ad570cf23f, type: 3}
      propertyPath: m_RootOrder
      value: 6
      objectReference: {fileID: 0}
    - target: {fileID: 4828949845237886, guid: 34aa3fc438758473c9e3d9ad570cf23f, type: 3}
      propertyPath: m_LocalScale.x
      value: 0.13
      objectReference: {fileID: 0}
    - target: {fileID: 4828949845237886, guid: 34aa3fc438758473c9e3d9ad570cf23f, type: 3}
      propertyPath: m_LocalScale.y
      value: 0.27
      objectReference: {fileID: 0}
    - target: {fileID: 4828949845237886, guid: 34aa3fc438758473c9e3d9ad570cf23f, type: 3}
      propertyPath: m_LocalScale.z
      value: 0.35259706
      objectReference: {fileID: 0}
    - target: {fileID: 4828949845237886, guid: 34aa3fc438758473c9e3d9ad570cf23f, type: 3}
      propertyPath: m_LocalPosition.x
      value: -0.304
      objectReference: {fileID: 0}
    - target: {fileID: 4828949845237886, guid: 34aa3fc438758473c9e3d9ad570cf23f, type: 3}
      propertyPath: m_LocalPosition.y
      value: 0.04
      objectReference: {fileID: 0}
    - target: {fileID: 4828949845237886, guid: 34aa3fc438758473c9e3d9ad570cf23f, type: 3}
      propertyPath: m_LocalPosition.z
      value: -0.41
      objectReference: {fileID: 0}
    - target: {fileID: 4828949845237886, guid: 34aa3fc438758473c9e3d9ad570cf23f, type: 3}
      propertyPath: m_LocalRotation.w
      value: 1
      objectReference: {fileID: 0}
    - target: {fileID: 4828949845237886, guid: 34aa3fc438758473c9e3d9ad570cf23f, type: 3}
      propertyPath: m_LocalRotation.x
      value: 0
      objectReference: {fileID: 0}
    - target: {fileID: 4828949845237886, guid: 34aa3fc438758473c9e3d9ad570cf23f, type: 3}
      propertyPath: m_LocalRotation.y
      value: 0
      objectReference: {fileID: 0}
    - target: {fileID: 4828949845237886, guid: 34aa3fc438758473c9e3d9ad570cf23f, type: 3}
      propertyPath: m_LocalRotation.z
      value: 0
      objectReference: {fileID: 0}
    - target: {fileID: 4828949845237886, guid: 34aa3fc438758473c9e3d9ad570cf23f, type: 3}
      propertyPath: m_LocalEulerAnglesHint.x
      value: 0
      objectReference: {fileID: 0}
    - target: {fileID: 4828949845237886, guid: 34aa3fc438758473c9e3d9ad570cf23f, type: 3}
      propertyPath: m_LocalEulerAnglesHint.y
      value: 0
      objectReference: {fileID: 0}
    - target: {fileID: 4828949845237886, guid: 34aa3fc438758473c9e3d9ad570cf23f, type: 3}
      propertyPath: m_LocalEulerAnglesHint.z
      value: 0
      objectReference: {fileID: 0}
    m_RemovedComponents: []
  m_SourcePrefab: {fileID: 100100000, guid: 34aa3fc438758473c9e3d9ad570cf23f, type: 3}
--- !u!4 &2296204570662403607 stripped
Transform:
  m_CorrespondingSourceObject: {fileID: 4828949845237886, guid: 34aa3fc438758473c9e3d9ad570cf23f, type: 3}
  m_PrefabInstance: {fileID: 2291459213766696553}
  m_PrefabAsset: {fileID: 0}
--- !u!1001 &3475215589877632632
PrefabInstance:
  m_ObjectHideFlags: 0
  serializedVersion: 2
  m_Modification:
    m_TransformParent: {fileID: 5409454246588440286}
    m_Modifications:
    - target: {fileID: -8679921383154817045, guid: 013456bb1f909bd4f93d01448ff74e4a, type: 3}
      propertyPath: m_RootOrder
      value: 0
      objectReference: {fileID: 0}
    - target: {fileID: -8679921383154817045, guid: 013456bb1f909bd4f93d01448ff74e4a, type: 3}
      propertyPath: m_LocalPosition.x
      value: 0
      objectReference: {fileID: 0}
    - target: {fileID: -8679921383154817045, guid: 013456bb1f909bd4f93d01448ff74e4a, type: 3}
      propertyPath: m_LocalPosition.y
      value: 0
      objectReference: {fileID: 0}
    - target: {fileID: -8679921383154817045, guid: 013456bb1f909bd4f93d01448ff74e4a, type: 3}
      propertyPath: m_LocalPosition.z
      value: 0
      objectReference: {fileID: 0}
    - target: {fileID: -8679921383154817045, guid: 013456bb1f909bd4f93d01448ff74e4a, type: 3}
      propertyPath: m_LocalRotation.w
      value: 1
      objectReference: {fileID: 0}
    - target: {fileID: -8679921383154817045, guid: 013456bb1f909bd4f93d01448ff74e4a, type: 3}
      propertyPath: m_LocalRotation.x
      value: -0
      objectReference: {fileID: 0}
    - target: {fileID: -8679921383154817045, guid: 013456bb1f909bd4f93d01448ff74e4a, type: 3}
      propertyPath: m_LocalRotation.y
      value: -0
      objectReference: {fileID: 0}
    - target: {fileID: -8679921383154817045, guid: 013456bb1f909bd4f93d01448ff74e4a, type: 3}
      propertyPath: m_LocalRotation.z
      value: -0
      objectReference: {fileID: 0}
    - target: {fileID: -8679921383154817045, guid: 013456bb1f909bd4f93d01448ff74e4a, type: 3}
      propertyPath: m_LocalEulerAnglesHint.x
      value: 0
      objectReference: {fileID: 0}
    - target: {fileID: -8679921383154817045, guid: 013456bb1f909bd4f93d01448ff74e4a, type: 3}
      propertyPath: m_LocalEulerAnglesHint.y
      value: 0
      objectReference: {fileID: 0}
    - target: {fileID: -8679921383154817045, guid: 013456bb1f909bd4f93d01448ff74e4a, type: 3}
      propertyPath: m_LocalEulerAnglesHint.z
      value: 0
      objectReference: {fileID: 0}
    - target: {fileID: -7511558181221131132, guid: 013456bb1f909bd4f93d01448ff74e4a, type: 3}
      propertyPath: m_Materials.Array.data[0]
      value: 
      objectReference: {fileID: 2100000, guid: 63df7e5756f972c4797b691564ae6c0c, type: 2}
    - target: {fileID: 919132149155446097, guid: 013456bb1f909bd4f93d01448ff74e4a, type: 3}
      propertyPath: m_Name
      value: base_gameplay_room
      objectReference: {fileID: 0}
    - target: {fileID: 919132149155446097, guid: 013456bb1f909bd4f93d01448ff74e4a, type: 3}
      propertyPath: m_IsActive
      value: 1
      objectReference: {fileID: 0}
    m_RemovedComponents: []
  m_SourcePrefab: {fileID: 100100000, guid: 013456bb1f909bd4f93d01448ff74e4a, type: 3}
--- !u!4 &4012930846237600147 stripped
Transform:
  m_CorrespondingSourceObject: {fileID: -8679921383154817045, guid: 013456bb1f909bd4f93d01448ff74e4a, type: 3}
  m_PrefabInstance: {fileID: 3475215589877632632}
  m_PrefabAsset: {fileID: 0}
--- !u!1001 &3841740349282718357
PrefabInstance:
  m_ObjectHideFlags: 0
  serializedVersion: 2
  m_Modification:
    m_TransformParent: {fileID: 4908460989321917601}
    m_Modifications:
    - target: {fileID: 1142150235287386, guid: 0f9866448112842e784d5f4a847ad24a, type: 3}
      propertyPath: m_Name
      value: chair-dining
      objectReference: {fileID: 0}
    - target: {fileID: 4328999627622386, guid: 0f9866448112842e784d5f4a847ad24a, type: 3}
      propertyPath: m_RootOrder
      value: 1
      objectReference: {fileID: 0}
    - target: {fileID: 4328999627622386, guid: 0f9866448112842e784d5f4a847ad24a, type: 3}
      propertyPath: m_LocalScale.x
      value: 1.4
      objectReference: {fileID: 0}
    - target: {fileID: 4328999627622386, guid: 0f9866448112842e784d5f4a847ad24a, type: 3}
      propertyPath: m_LocalScale.y
      value: 0.875
      objectReference: {fileID: 0}
    - target: {fileID: 4328999627622386, guid: 0f9866448112842e784d5f4a847ad24a, type: 3}
      propertyPath: m_LocalScale.z
      value: 0.875
      objectReference: {fileID: 0}
    - target: {fileID: 4328999627622386, guid: 0f9866448112842e784d5f4a847ad24a, type: 3}
      propertyPath: m_LocalPosition.x
      value: 0
      objectReference: {fileID: 0}
    - target: {fileID: 4328999627622386, guid: 0f9866448112842e784d5f4a847ad24a, type: 3}
      propertyPath: m_LocalPosition.y
      value: 0
      objectReference: {fileID: 0}
    - target: {fileID: 4328999627622386, guid: 0f9866448112842e784d5f4a847ad24a, type: 3}
      propertyPath: m_LocalPosition.z
      value: -0.63624996
      objectReference: {fileID: 0}
    - target: {fileID: 4328999627622386, guid: 0f9866448112842e784d5f4a847ad24a, type: 3}
      propertyPath: m_LocalRotation.w
      value: 1
      objectReference: {fileID: 0}
    - target: {fileID: 4328999627622386, guid: 0f9866448112842e784d5f4a847ad24a, type: 3}
      propertyPath: m_LocalRotation.x
      value: -0
      objectReference: {fileID: 0}
    - target: {fileID: 4328999627622386, guid: 0f9866448112842e784d5f4a847ad24a, type: 3}
      propertyPath: m_LocalRotation.y
      value: -0
      objectReference: {fileID: 0}
    - target: {fileID: 4328999627622386, guid: 0f9866448112842e784d5f4a847ad24a, type: 3}
      propertyPath: m_LocalRotation.z
      value: -0
      objectReference: {fileID: 0}
    - target: {fileID: 4328999627622386, guid: 0f9866448112842e784d5f4a847ad24a, type: 3}
      propertyPath: m_LocalEulerAnglesHint.x
      value: 0
      objectReference: {fileID: 0}
    - target: {fileID: 4328999627622386, guid: 0f9866448112842e784d5f4a847ad24a, type: 3}
      propertyPath: m_LocalEulerAnglesHint.y
      value: 0
      objectReference: {fileID: 0}
    - target: {fileID: 4328999627622386, guid: 0f9866448112842e784d5f4a847ad24a, type: 3}
      propertyPath: m_LocalEulerAnglesHint.z
      value: 0
      objectReference: {fileID: 0}
    m_RemovedComponents: []
  m_SourcePrefab: {fileID: 100100000, guid: 0f9866448112842e784d5f4a847ad24a, type: 3}
--- !u!4 &3846068917130859879 stripped
Transform:
  m_CorrespondingSourceObject: {fileID: 4328999627622386, guid: 0f9866448112842e784d5f4a847ad24a, type: 3}
  m_PrefabInstance: {fileID: 3841740349282718357}
  m_PrefabAsset: {fileID: 0}
--- !u!1001 &4023489446855887463
PrefabInstance:
  m_ObjectHideFlags: 0
  serializedVersion: 2
  m_Modification:
    m_TransformParent: {fileID: 4908460989321917601}
    m_Modifications:
    - target: {fileID: 1886126668315858, guid: 34aa3fc438758473c9e3d9ad570cf23f, type: 3}
      propertyPath: m_Name
      value: table-dining
      objectReference: {fileID: 0}
    - target: {fileID: 4828949845237886, guid: 34aa3fc438758473c9e3d9ad570cf23f, type: 3}
      propertyPath: m_RootOrder
      value: 0
      objectReference: {fileID: 0}
    - target: {fileID: 4828949845237886, guid: 34aa3fc438758473c9e3d9ad570cf23f, type: 3}
      propertyPath: m_LocalScale.x
      value: 1.5
      objectReference: {fileID: 0}
    - target: {fileID: 4828949845237886, guid: 34aa3fc438758473c9e3d9ad570cf23f, type: 3}
      propertyPath: m_LocalScale.y
      value: 1
      objectReference: {fileID: 0}
    - target: {fileID: 4828949845237886, guid: 34aa3fc438758473c9e3d9ad570cf23f, type: 3}
      propertyPath: m_LocalScale.z
      value: 1
      objectReference: {fileID: 0}
    - target: {fileID: 4828949845237886, guid: 34aa3fc438758473c9e3d9ad570cf23f, type: 3}
      propertyPath: m_LocalPosition.x
      value: 0
      objectReference: {fileID: 0}
    - target: {fileID: 4828949845237886, guid: 34aa3fc438758473c9e3d9ad570cf23f, type: 3}
      propertyPath: m_LocalPosition.y
      value: 0
      objectReference: {fileID: 0}
    - target: {fileID: 4828949845237886, guid: 34aa3fc438758473c9e3d9ad570cf23f, type: 3}
      propertyPath: m_LocalPosition.z
      value: 0
      objectReference: {fileID: 0}
    - target: {fileID: 4828949845237886, guid: 34aa3fc438758473c9e3d9ad570cf23f, type: 3}
      propertyPath: m_LocalRotation.w
      value: 1
      objectReference: {fileID: 0}
    - target: {fileID: 4828949845237886, guid: 34aa3fc438758473c9e3d9ad570cf23f, type: 3}
      propertyPath: m_LocalRotation.x
      value: -0
      objectReference: {fileID: 0}
    - target: {fileID: 4828949845237886, guid: 34aa3fc438758473c9e3d9ad570cf23f, type: 3}
      propertyPath: m_LocalRotation.y
      value: -0
      objectReference: {fileID: 0}
    - target: {fileID: 4828949845237886, guid: 34aa3fc438758473c9e3d9ad570cf23f, type: 3}
      propertyPath: m_LocalRotation.z
      value: -0
      objectReference: {fileID: 0}
    - target: {fileID: 4828949845237886, guid: 34aa3fc438758473c9e3d9ad570cf23f, type: 3}
      propertyPath: m_LocalEulerAnglesHint.x
      value: 0
      objectReference: {fileID: 0}
    - target: {fileID: 4828949845237886, guid: 34aa3fc438758473c9e3d9ad570cf23f, type: 3}
      propertyPath: m_LocalEulerAnglesHint.y
      value: 0
      objectReference: {fileID: 0}
    - target: {fileID: 4828949845237886, guid: 34aa3fc438758473c9e3d9ad570cf23f, type: 3}
      propertyPath: m_LocalEulerAnglesHint.z
      value: 0
      objectReference: {fileID: 0}
    m_RemovedComponents: []
  m_SourcePrefab: {fileID: 100100000, guid: 34aa3fc438758473c9e3d9ad570cf23f, type: 3}
--- !u!4 &4019297406302104089 stripped
Transform:
  m_CorrespondingSourceObject: {fileID: 4828949845237886, guid: 34aa3fc438758473c9e3d9ad570cf23f, type: 3}
  m_PrefabInstance: {fileID: 4023489446855887463}
  m_PrefabAsset: {fileID: 0}
--- !u!1001 &4189886154972605619
PrefabInstance:
  m_ObjectHideFlags: 0
  serializedVersion: 2
  m_Modification:
    m_TransformParent: {fileID: 5409454246588440286}
    m_Modifications:
    - target: {fileID: -8679921383154817045, guid: 08e6ba66df9600f42b802a44499ae522, type: 3}
      propertyPath: m_RootOrder
      value: 1
      objectReference: {fileID: 0}
    - target: {fileID: -8679921383154817045, guid: 08e6ba66df9600f42b802a44499ae522, type: 3}
      propertyPath: m_LocalScale.x
      value: 0.005
      objectReference: {fileID: 0}
    - target: {fileID: -8679921383154817045, guid: 08e6ba66df9600f42b802a44499ae522, type: 3}
      propertyPath: m_LocalScale.y
      value: 0.003
      objectReference: {fileID: 0}
    - target: {fileID: -8679921383154817045, guid: 08e6ba66df9600f42b802a44499ae522, type: 3}
      propertyPath: m_LocalScale.z
      value: 0.005
      objectReference: {fileID: 0}
    - target: {fileID: -8679921383154817045, guid: 08e6ba66df9600f42b802a44499ae522, type: 3}
      propertyPath: m_LocalPosition.x
      value: -0.0597
      objectReference: {fileID: 0}
    - target: {fileID: -8679921383154817045, guid: 08e6ba66df9600f42b802a44499ae522, type: 3}
      propertyPath: m_LocalPosition.y
      value: 0.1874
      objectReference: {fileID: 0}
    - target: {fileID: -8679921383154817045, guid: 08e6ba66df9600f42b802a44499ae522, type: 3}
      propertyPath: m_LocalPosition.z
      value: -0.1155
      objectReference: {fileID: 0}
    - target: {fileID: -8679921383154817045, guid: 08e6ba66df9600f42b802a44499ae522, type: 3}
      propertyPath: m_LocalRotation.w
      value: 0.97553605
      objectReference: {fileID: 0}
    - target: {fileID: -8679921383154817045, guid: 08e6ba66df9600f42b802a44499ae522, type: 3}
      propertyPath: m_LocalRotation.x
      value: -0
      objectReference: {fileID: 0}
    - target: {fileID: -8679921383154817045, guid: 08e6ba66df9600f42b802a44499ae522, type: 3}
      propertyPath: m_LocalRotation.y
      value: 0.21983956
      objectReference: {fileID: 0}
    - target: {fileID: -8679921383154817045, guid: 08e6ba66df9600f42b802a44499ae522, type: 3}
      propertyPath: m_LocalRotation.z
      value: -0
      objectReference: {fileID: 0}
    - target: {fileID: -8679921383154817045, guid: 08e6ba66df9600f42b802a44499ae522, type: 3}
      propertyPath: m_LocalEulerAnglesHint.x
      value: 0
      objectReference: {fileID: 0}
    - target: {fileID: -8679921383154817045, guid: 08e6ba66df9600f42b802a44499ae522, type: 3}
      propertyPath: m_LocalEulerAnglesHint.y
      value: 25.399
      objectReference: {fileID: 0}
    - target: {fileID: -8679921383154817045, guid: 08e6ba66df9600f42b802a44499ae522, type: 3}
      propertyPath: m_LocalEulerAnglesHint.z
      value: 0
      objectReference: {fileID: 0}
    - target: {fileID: 919132149155446097, guid: 08e6ba66df9600f42b802a44499ae522, type: 3}
      propertyPath: m_Name
      value: tree_P
      objectReference: {fileID: 0}
    m_RemovedComponents: []
  m_SourcePrefab: {fileID: 100100000, guid: 08e6ba66df9600f42b802a44499ae522, type: 3}
--- !u!4 &4444998128068021080 stripped
Transform:
  m_CorrespondingSourceObject: {fileID: -8679921383154817045, guid: 08e6ba66df9600f42b802a44499ae522, type: 3}
  m_PrefabInstance: {fileID: 4189886154972605619}
  m_PrefabAsset: {fileID: 0}
--- !u!1001 &5491180562998697839
PrefabInstance:
  m_ObjectHideFlags: 0
  serializedVersion: 2
  m_Modification:
    m_TransformParent: {fileID: 4860318770443370541}
    m_Modifications:
    - target: {fileID: 1403005516184392, guid: b1b9abc705ea34f8da57cbaf61ffbef7, type: 3}
      propertyPath: m_Name
      value: book-open
      objectReference: {fileID: 0}
    - target: {fileID: 4750582319295530, guid: b1b9abc705ea34f8da57cbaf61ffbef7, type: 3}
      propertyPath: m_RootOrder
      value: 3
      objectReference: {fileID: 0}
    - target: {fileID: 4750582319295530, guid: b1b9abc705ea34f8da57cbaf61ffbef7, type: 3}
      propertyPath: m_LocalScale.x
      value: 0.2
      objectReference: {fileID: 0}
    - target: {fileID: 4750582319295530, guid: b1b9abc705ea34f8da57cbaf61ffbef7, type: 3}
      propertyPath: m_LocalScale.y
      value: 0.2
      objectReference: {fileID: 0}
    - target: {fileID: 4750582319295530, guid: b1b9abc705ea34f8da57cbaf61ffbef7, type: 3}
      propertyPath: m_LocalScale.z
      value: 0.2
      objectReference: {fileID: 0}
    - target: {fileID: 4750582319295530, guid: b1b9abc705ea34f8da57cbaf61ffbef7, type: 3}
      propertyPath: m_LocalPosition.x
      value: 0.3951
      objectReference: {fileID: 0}
    - target: {fileID: 4750582319295530, guid: b1b9abc705ea34f8da57cbaf61ffbef7, type: 3}
      propertyPath: m_LocalPosition.y
      value: 0.29599997
      objectReference: {fileID: 0}
    - target: {fileID: 4750582319295530, guid: b1b9abc705ea34f8da57cbaf61ffbef7, type: 3}
      propertyPath: m_LocalPosition.z
      value: 0.2394
      objectReference: {fileID: 0}
    - target: {fileID: 4750582319295530, guid: b1b9abc705ea34f8da57cbaf61ffbef7, type: 3}
      propertyPath: m_LocalRotation.w
      value: 0.6857316
      objectReference: {fileID: 0}
    - target: {fileID: 4750582319295530, guid: b1b9abc705ea34f8da57cbaf61ffbef7, type: 3}
      propertyPath: m_LocalRotation.x
      value: -0
      objectReference: {fileID: 0}
    - target: {fileID: 4750582319295530, guid: b1b9abc705ea34f8da57cbaf61ffbef7, type: 3}
      propertyPath: m_LocalRotation.y
      value: -0.7278546
      objectReference: {fileID: 0}
    - target: {fileID: 4750582319295530, guid: b1b9abc705ea34f8da57cbaf61ffbef7, type: 3}
      propertyPath: m_LocalRotation.z
      value: -0
      objectReference: {fileID: 0}
    - target: {fileID: 4750582319295530, guid: b1b9abc705ea34f8da57cbaf61ffbef7, type: 3}
      propertyPath: m_LocalEulerAnglesHint.x
      value: 0
      objectReference: {fileID: 0}
    - target: {fileID: 4750582319295530, guid: b1b9abc705ea34f8da57cbaf61ffbef7, type: 3}
      propertyPath: m_LocalEulerAnglesHint.y
      value: -93.414
      objectReference: {fileID: 0}
    - target: {fileID: 4750582319295530, guid: b1b9abc705ea34f8da57cbaf61ffbef7, type: 3}
      propertyPath: m_LocalEulerAnglesHint.z
      value: 0
      objectReference: {fileID: 0}
    m_RemovedComponents: []
  m_SourcePrefab: {fileID: 100100000, guid: b1b9abc705ea34f8da57cbaf61ffbef7, type: 3}
--- !u!4 &5486641095520498501 stripped
Transform:
  m_CorrespondingSourceObject: {fileID: 4750582319295530, guid: b1b9abc705ea34f8da57cbaf61ffbef7, type: 3}
  m_PrefabInstance: {fileID: 5491180562998697839}
  m_PrefabAsset: {fileID: 0}
--- !u!1001 &5563787125724487239
PrefabInstance:
  m_ObjectHideFlags: 0
  serializedVersion: 2
  m_Modification:
    m_TransformParent: {fileID: 4860318770443370541}
    m_Modifications:
    - target: {fileID: 1167207809616998, guid: 2aa1bbb67d504402e8085eb320b0939d, type: 3}
      propertyPath: m_Name
      value: library-books
      objectReference: {fileID: 0}
    - target: {fileID: 4302799846527012, guid: 2aa1bbb67d504402e8085eb320b0939d, type: 3}
      propertyPath: m_RootOrder
      value: 5
      objectReference: {fileID: 0}
    - target: {fileID: 4302799846527012, guid: 2aa1bbb67d504402e8085eb320b0939d, type: 3}
      propertyPath: m_LocalScale.x
      value: 0.25
      objectReference: {fileID: 0}
    - target: {fileID: 4302799846527012, guid: 2aa1bbb67d504402e8085eb320b0939d, type: 3}
      propertyPath: m_LocalScale.y
      value: 0.25
      objectReference: {fileID: 0}
    - target: {fileID: 4302799846527012, guid: 2aa1bbb67d504402e8085eb320b0939d, type: 3}
      propertyPath: m_LocalScale.z
      value: 0.25
      objectReference: {fileID: 0}
    - target: {fileID: 4302799846527012, guid: 2aa1bbb67d504402e8085eb320b0939d, type: 3}
      propertyPath: m_LocalPosition.x
      value: 0.304
      objectReference: {fileID: 0}
    - target: {fileID: 4302799846527012, guid: 2aa1bbb67d504402e8085eb320b0939d, type: 3}
      propertyPath: m_LocalPosition.y
      value: 0.076
      objectReference: {fileID: 0}
    - target: {fileID: 4302799846527012, guid: 2aa1bbb67d504402e8085eb320b0939d, type: 3}
      propertyPath: m_LocalPosition.z
      value: -0.488
      objectReference: {fileID: 0}
    - target: {fileID: 4302799846527012, guid: 2aa1bbb67d504402e8085eb320b0939d, type: 3}
      propertyPath: m_LocalRotation.w
      value: 1
      objectReference: {fileID: 0}
    - target: {fileID: 4302799846527012, guid: 2aa1bbb67d504402e8085eb320b0939d, type: 3}
      propertyPath: m_LocalRotation.x
      value: -0
      objectReference: {fileID: 0}
    - target: {fileID: 4302799846527012, guid: 2aa1bbb67d504402e8085eb320b0939d, type: 3}
      propertyPath: m_LocalRotation.y
      value: -0
      objectReference: {fileID: 0}
    - target: {fileID: 4302799846527012, guid: 2aa1bbb67d504402e8085eb320b0939d, type: 3}
      propertyPath: m_LocalRotation.z
      value: -0
      objectReference: {fileID: 0}
    - target: {fileID: 4302799846527012, guid: 2aa1bbb67d504402e8085eb320b0939d, type: 3}
      propertyPath: m_LocalEulerAnglesHint.x
      value: 0
      objectReference: {fileID: 0}
    - target: {fileID: 4302799846527012, guid: 2aa1bbb67d504402e8085eb320b0939d, type: 3}
      propertyPath: m_LocalEulerAnglesHint.y
      value: 0
      objectReference: {fileID: 0}
    - target: {fileID: 4302799846527012, guid: 2aa1bbb67d504402e8085eb320b0939d, type: 3}
      propertyPath: m_LocalEulerAnglesHint.z
      value: 0
      objectReference: {fileID: 0}
    m_RemovedComponents: []
  m_SourcePrefab: {fileID: 100100000, guid: 2aa1bbb67d504402e8085eb320b0939d, type: 3}
--- !u!4 &5564694001226305123 stripped
Transform:
  m_CorrespondingSourceObject: {fileID: 4302799846527012, guid: 2aa1bbb67d504402e8085eb320b0939d, type: 3}
  m_PrefabInstance: {fileID: 5563787125724487239}
  m_PrefabAsset: {fileID: 0}
--- !u!1001 &8324629849413440799
PrefabInstance:
  m_ObjectHideFlags: 0
  serializedVersion: 2
  m_Modification:
    m_TransformParent: {fileID: 4860318770443370541}
    m_Modifications:
    - target: {fileID: 2580503592482746919, guid: 0cb6bc7c7e03a3d4ab7b8d3546099531, type: 3}
      propertyPath: m_Enabled
      value: 0
      objectReference: {fileID: 0}
    - target: {fileID: 2697411742884636282, guid: 0cb6bc7c7e03a3d4ab7b8d3546099531, type: 3}
      propertyPath: fsm.states.Array.data[14].actionData.actionIsOpen.Array.data[0]
      value: 0
      objectReference: {fileID: 0}
    - target: {fileID: 2697411742884636282, guid: 0cb6bc7c7e03a3d4ab7b8d3546099531, type: 3}
      propertyPath: fsm.states.Array.data[14].actionData.fsmOwnerDefaultParams.Array.data[1].gameObject.value
      value: 
      objectReference: {fileID: 1363862609358839930}
    - target: {fileID: 4095210182412006941, guid: 0cb6bc7c7e03a3d4ab7b8d3546099531, type: 3}
      propertyPath: x
      value: 179.82744
      objectReference: {fileID: 0}
    - target: {fileID: 4095210182412006941, guid: 0cb6bc7c7e03a3d4ab7b8d3546099531, type: 3}
      propertyPath: y
      value: 0.53472066
      objectReference: {fileID: 0}
    - target: {fileID: 4095210182412006941, guid: 0cb6bc7c7e03a3d4ab7b8d3546099531, type: 3}
      propertyPath: fov
      value: 6
      objectReference: {fileID: 0}
    - target: {fileID: 4095210182412006941, guid: 0cb6bc7c7e03a3d4ab7b8d3546099531, type: 3}
      propertyPath: changeX
      value: 1
      objectReference: {fileID: 0}
    - target: {fileID: 4095210182412006941, guid: 0cb6bc7c7e03a3d4ab7b8d3546099531, type: 3}
      propertyPath: changeY
      value: 1
      objectReference: {fileID: 0}
    - target: {fileID: 4095210182412006941, guid: 0cb6bc7c7e03a3d4ab7b8d3546099531, type: 3}
      propertyPath: changeFOV
      value: 1
      objectReference: {fileID: 0}
    - target: {fileID: 4866327738557732360, guid: 0cb6bc7c7e03a3d4ab7b8d3546099531, type: 3}
      propertyPath: m_RootOrder
      value: 2
      objectReference: {fileID: 0}
    - target: {fileID: 4866327738557732360, guid: 0cb6bc7c7e03a3d4ab7b8d3546099531, type: 3}
      propertyPath: m_LocalScale.x
      value: 0.5
      objectReference: {fileID: 0}
    - target: {fileID: 4866327738557732360, guid: 0cb6bc7c7e03a3d4ab7b8d3546099531, type: 3}
      propertyPath: m_LocalScale.y
      value: 0.5
      objectReference: {fileID: 0}
    - target: {fileID: 4866327738557732360, guid: 0cb6bc7c7e03a3d4ab7b8d3546099531, type: 3}
      propertyPath: m_LocalScale.z
      value: 0.5
      objectReference: {fileID: 0}
    - target: {fileID: 4866327738557732360, guid: 0cb6bc7c7e03a3d4ab7b8d3546099531, type: 3}
      propertyPath: m_LocalPosition.x
      value: -0.303
      objectReference: {fileID: 0}
    - target: {fileID: 4866327738557732360, guid: 0cb6bc7c7e03a3d4ab7b8d3546099531, type: 3}
      propertyPath: m_LocalPosition.y
      value: 0.256
      objectReference: {fileID: 0}
    - target: {fileID: 4866327738557732360, guid: 0cb6bc7c7e03a3d4ab7b8d3546099531, type: 3}
      propertyPath: m_LocalPosition.z
      value: -0.369
      objectReference: {fileID: 0}
    - target: {fileID: 4866327738557732360, guid: 0cb6bc7c7e03a3d4ab7b8d3546099531, type: 3}
      propertyPath: m_LocalRotation.w
      value: 1
      objectReference: {fileID: 0}
    - target: {fileID: 4866327738557732360, guid: 0cb6bc7c7e03a3d4ab7b8d3546099531, type: 3}
      propertyPath: m_LocalRotation.x
      value: 0
      objectReference: {fileID: 0}
    - target: {fileID: 4866327738557732360, guid: 0cb6bc7c7e03a3d4ab7b8d3546099531, type: 3}
      propertyPath: m_LocalRotation.y
      value: 0
      objectReference: {fileID: 0}
    - target: {fileID: 4866327738557732360, guid: 0cb6bc7c7e03a3d4ab7b8d3546099531, type: 3}
      propertyPath: m_LocalRotation.z
      value: 0
      objectReference: {fileID: 0}
    - target: {fileID: 4866327738557732360, guid: 0cb6bc7c7e03a3d4ab7b8d3546099531, type: 3}
      propertyPath: m_LocalEulerAnglesHint.x
      value: 0
      objectReference: {fileID: 0}
    - target: {fileID: 4866327738557732360, guid: 0cb6bc7c7e03a3d4ab7b8d3546099531, type: 3}
      propertyPath: m_LocalEulerAnglesHint.y
      value: 0
      objectReference: {fileID: 0}
    - target: {fileID: 4866327738557732360, guid: 0cb6bc7c7e03a3d4ab7b8d3546099531, type: 3}
      propertyPath: m_LocalEulerAnglesHint.z
      value: 0
      objectReference: {fileID: 0}
    - target: {fileID: 4991544363931598953, guid: 0cb6bc7c7e03a3d4ab7b8d3546099531, type: 3}
      propertyPath: m_Enabled
      value: 0
      objectReference: {fileID: 0}
    - target: {fileID: 5196501559174343988, guid: 0cb6bc7c7e03a3d4ab7b8d3546099531, type: 3}
      propertyPath: x
      value: 4478.8604
      objectReference: {fileID: 0}
    - target: {fileID: 5196501559174343988, guid: 0cb6bc7c7e03a3d4ab7b8d3546099531, type: 3}
      propertyPath: y
      value: 0.41520545
      objectReference: {fileID: 0}
    - target: {fileID: 5196501559174343988, guid: 0cb6bc7c7e03a3d4ab7b8d3546099531, type: 3}
      propertyPath: fov
      value: 6
      objectReference: {fileID: 0}
    - target: {fileID: 5196501559174343988, guid: 0cb6bc7c7e03a3d4ab7b8d3546099531, type: 3}
      propertyPath: changeX
      value: 1
      objectReference: {fileID: 0}
    - target: {fileID: 5196501559174343988, guid: 0cb6bc7c7e03a3d4ab7b8d3546099531, type: 3}
      propertyPath: changeY
      value: 1
      objectReference: {fileID: 0}
    - target: {fileID: 5196501559174343988, guid: 0cb6bc7c7e03a3d4ab7b8d3546099531, type: 3}
      propertyPath: changeFOV
      value: 1
      objectReference: {fileID: 0}
    - target: {fileID: 6936156981714249710, guid: 0cb6bc7c7e03a3d4ab7b8d3546099531, type: 3}
      propertyPath: m_Name
      value: FAN
      objectReference: {fileID: 0}
    - target: {fileID: 7380574187014173915, guid: 0cb6bc7c7e03a3d4ab7b8d3546099531, type: 3}
      propertyPath: x
      value: 4454.075
      objectReference: {fileID: 0}
    - target: {fileID: 7380574187014173915, guid: 0cb6bc7c7e03a3d4ab7b8d3546099531, type: 3}
      propertyPath: y
      value: 0.7350156
      objectReference: {fileID: 0}
    - target: {fileID: 7380574187014173915, guid: 0cb6bc7c7e03a3d4ab7b8d3546099531, type: 3}
      propertyPath: fov
      value: 50
      objectReference: {fileID: 0}
    - target: {fileID: 7380574187014173915, guid: 0cb6bc7c7e03a3d4ab7b8d3546099531, type: 3}
      propertyPath: center
      value: 
      objectReference: {fileID: 8331842349421125986}
    - target: {fileID: 7380574187014173915, guid: 0cb6bc7c7e03a3d4ab7b8d3546099531, type: 3}
      propertyPath: changeX
      value: 1
      objectReference: {fileID: 0}
    - target: {fileID: 7380574187014173915, guid: 0cb6bc7c7e03a3d4ab7b8d3546099531, type: 3}
      propertyPath: changeY
      value: 1
      objectReference: {fileID: 0}
    - target: {fileID: 7380574187014173915, guid: 0cb6bc7c7e03a3d4ab7b8d3546099531, type: 3}
      propertyPath: changeFOV
      value: 1
      objectReference: {fileID: 0}
    - target: {fileID: 7445340147129378572, guid: 0cb6bc7c7e03a3d4ab7b8d3546099531, type: 3}
      propertyPath: x
      value: 4454.075
      objectReference: {fileID: 0}
    - target: {fileID: 7445340147129378572, guid: 0cb6bc7c7e03a3d4ab7b8d3546099531, type: 3}
      propertyPath: y
      value: 0.7350156
      objectReference: {fileID: 0}
    - target: {fileID: 7445340147129378572, guid: 0cb6bc7c7e03a3d4ab7b8d3546099531, type: 3}
      propertyPath: fov
      value: 6
      objectReference: {fileID: 0}
    - target: {fileID: 7445340147129378572, guid: 0cb6bc7c7e03a3d4ab7b8d3546099531, type: 3}
      propertyPath: changeX
      value: 1
      objectReference: {fileID: 0}
    - target: {fileID: 7445340147129378572, guid: 0cb6bc7c7e03a3d4ab7b8d3546099531, type: 3}
      propertyPath: changeY
      value: 1
      objectReference: {fileID: 0}
    - target: {fileID: 7445340147129378572, guid: 0cb6bc7c7e03a3d4ab7b8d3546099531, type: 3}
      propertyPath: changeFOV
      value: 1
      objectReference: {fileID: 0}
    - target: {fileID: 7701611541933485283, guid: 0cb6bc7c7e03a3d4ab7b8d3546099531, type: 3}
      propertyPath: x
      value: 4500.767
      objectReference: {fileID: 0}
    - target: {fileID: 7701611541933485283, guid: 0cb6bc7c7e03a3d4ab7b8d3546099531, type: 3}
      propertyPath: y
      value: 0.61154497
      objectReference: {fileID: 0}
    - target: {fileID: 7701611541933485283, guid: 0cb6bc7c7e03a3d4ab7b8d3546099531, type: 3}
      propertyPath: fov
      value: 15.6364
      objectReference: {fileID: 0}
    - target: {fileID: 7701611541933485283, guid: 0cb6bc7c7e03a3d4ab7b8d3546099531, type: 3}
      propertyPath: changeX
      value: 1
      objectReference: {fileID: 0}
    - target: {fileID: 7701611541933485283, guid: 0cb6bc7c7e03a3d4ab7b8d3546099531, type: 3}
      propertyPath: changeY
      value: 1
      objectReference: {fileID: 0}
    - target: {fileID: 7701611541933485283, guid: 0cb6bc7c7e03a3d4ab7b8d3546099531, type: 3}
      propertyPath: changeFOV
      value: 1
      objectReference: {fileID: 0}
    - target: {fileID: 8478089535264982238, guid: 0cb6bc7c7e03a3d4ab7b8d3546099531, type: 3}
      propertyPath: x
      value: 156.31332
      objectReference: {fileID: 0}
    - target: {fileID: 8478089535264982238, guid: 0cb6bc7c7e03a3d4ab7b8d3546099531, type: 3}
      propertyPath: y
      value: 0.58196014
      objectReference: {fileID: 0}
    - target: {fileID: 8478089535264982238, guid: 0cb6bc7c7e03a3d4ab7b8d3546099531, type: 3}
      propertyPath: fov
      value: 6
      objectReference: {fileID: 0}
    - target: {fileID: 8478089535264982238, guid: 0cb6bc7c7e03a3d4ab7b8d3546099531, type: 3}
      propertyPath: changeX
      value: 1
      objectReference: {fileID: 0}
    - target: {fileID: 8478089535264982238, guid: 0cb6bc7c7e03a3d4ab7b8d3546099531, type: 3}
      propertyPath: changeY
      value: 1
      objectReference: {fileID: 0}
    - target: {fileID: 8478089535264982238, guid: 0cb6bc7c7e03a3d4ab7b8d3546099531, type: 3}
      propertyPath: changeFOV
      value: 1
      objectReference: {fileID: 0}
    m_RemovedComponents: []
  m_SourcePrefab: {fileID: 100100000, guid: 0cb6bc7c7e03a3d4ab7b8d3546099531, type: 3}
--- !u!4 &3463177908896121623 stripped
Transform:
  m_CorrespondingSourceObject: {fileID: 4866327738557732360, guid: 0cb6bc7c7e03a3d4ab7b8d3546099531, type: 3}
  m_PrefabInstance: {fileID: 8324629849413440799}
  m_PrefabAsset: {fileID: 0}
--- !u!4 &7982604531313275186 stripped
Transform:
  m_CorrespondingSourceObject: {fileID: 2107946554387014701, guid: 0cb6bc7c7e03a3d4ab7b8d3546099531, type: 3}
  m_PrefabInstance: {fileID: 8324629849413440799}
  m_PrefabAsset: {fileID: 0}
--- !u!4 &6367524396304406043 stripped
Transform:
  m_CorrespondingSourceObject: {fileID: 3160114124637946628, guid: 0cb6bc7c7e03a3d4ab7b8d3546099531, type: 3}
  m_PrefabInstance: {fileID: 8324629849413440799}
  m_PrefabAsset: {fileID: 0}
