%YAML 1.1
%TAG !u! tag:unity3d.com,2011:
--- !u!1045 &1
EditorBuildSettings:
  m_ObjectHideFlags: 0
  serializedVersion: 2
  m_Scenes:
  - enabled: 1
    path: Assets/_PROJECT/_MAIN.unity
    guid: f5238e63568a6eb4b9f49a3598f744df
  - enabled: 0
    path: Assets/_PROJECT/_MAIN_NewTestingPrefab2.unity
    guid: 6e3084ea93ad6154c9670db889aa1f9c
  m_configObjects:
    com.unity.addressableassets: {fileID: 11400000, guid: 66fb41bedc6bd50419878d1f3b7bf717, type: 2}
